,0,1,2,3,4,5,6,7,8,9,10,11,12,13,14,15,16,17,18,19,20,21,22,23,24,25,26,27,28,29,30,31
0,0,sex,HIV,AIDS,stigma,condom,witchcraft,misconception,diarrhea,diarrhoea,PMTCT,prevention of mother to child transmission,mother,abortion,vaccine,injection,drug,pediatrics,violence,cash transfer,tobacco,malaria,p-value,PCA,zidovudine,antiretroviral drugs,ARV,initiated ART,HIV treatment,ART,HIV prevention,high risk sex
1,sex,6.815006644631478,2.2357860077275156,2.2917942086690952,3.093447716572353,5.8123255207493685,2.4540460762840626,1.4737326038021394,2.1095487801363118,2.39650834260164,3.198686962730931,3.273796295399664,2.280060618632654,2.492421029735918,1.421421190110736,1.3395043751038758,1.6004176107030283,2.3451284566710298,2.4959368882948465,2.5290063720312124,1.8500951678186575,1.885281464029285,2.0529145068267076,1.2532063021025561,2.493797794356075,2.9507402557332516,2.9029697202764293,3.9547690074149333,3.8017446083848605,1.220606641225141,5.15932104413952,6.815006644631478
2,HIV,2.2357860077275156,15.901832686217087,9.407758121207067,5.218606711046226,12.932852094340031,3.8675059425746396,1.8274188818134258,3.425754148249325,4.417175746171413,15.724653491941687,15.741112617450327,2.3086656801141094,2.277254241478142,5.016102752117444,1.5754137645787825,2.5868327682651566,2.408998835019842,2.0974923160358268,5.870012456435604,1.313974527152356,5.051194434412737,1.6059070936122326,0.7237911401828706,15.268644791957435,15.664550925169332,13.39350788749832,15.612708455558593,15.901832686217087,1.9606715545494862,15.90183268621709,14.47245446723128
3,AIDS,2.2917942086690952,9.407758121207069,19.08639776052933,6.255852722201145,14.31171920697037,4.687096498453483,2.7854299833682385,3.1528378586217887,2.4378622164600023,17.14585871245323,17.145985146349474,2.4935996428921463,2.5325705715959534,3.8556445889176736,1.3513220640938957,2.3567540729266816,1.9708621106283983,2.967027030059084,6.560949230181958,1.4106318890156433,4.645074529705528,1.325562836297046,0.8660619276658768,16.383132755131776,17.059565668078193,15.095863704942468,18.13207787250286,17.51573547876931,2.4116965684743614,17.44389062627635,16.620177825180036
4,stigma,3.093447716572353,5.218606711046227,6.255852722201146,98.74917709019091,24.405851683508146,20.40272253929564,7.730733213855419,1.0449648369332372,1.5914532043564302,30.94507638620189,28.180502380078263,4.839412172734752,6.729341703451995,1.261571383174952,0.800347101307926,1.932603938495711,1.701638857187426,10.68828100059723,13.50086405529954,2.7671741928331683,2.462937081669661,0.9624184227718657,0.7067700844271511,4.927504300367389,11.37052200764944,17.045988902473432,20.049075348614522,24.3788707156392,3.0282930822313023,30.74512637636551,32.17669815298356
5,condom,5.8123255207493685,12.932852094340031,14.311719206970368,24.405851683508143,258.1200258120026,9.447131995480614,8.15918545402785,1.4624973341012522,1.5761082657189347,52.1273032628696,49.5676387260861,4.825879723122888,10.951786140561124,4.811367635423974,1.992875615093168,2.649798775487937,1.90139496794407,10.460548609859964,21.678049042804904,2.217792392263165,3.47611258365407,1.6819933963345215,0.591658383533149,8.976956542856945,18.23081007973358,26.02326153089758,19.9456383582002,37.925837578569634,2.627843135774351,113.57909802322338,158.06226299723755
6,witchcraft,2.4540460762840626,3.8675059425746396,4.687096498453483,20.402722539295645,9.447131995480614,1416.7650531286895,11.719179169159027,3.541469949078089,7.51637115273479,20.71870899422178,17.688505419561523,7.793339083365056,6.327577675693614,1.5443600832029143,0.38094152109568435,1.2948228525754448,0.869695514164894,12.874701758903406,13.835596221959857,1.479997966236128,8.469716834825837,0.5128943525881667,0.6627520480557091,0.3570476444376738,3.1710732350555104,6.851914319446786,4.293227433723302,9.234753198014273,4.053901268581008,13.227357914333208,15.918708462120106
7,misconception,1.4737326038021394,1.827418881813426,2.7854299833682385,7.730733213855419,8.15918545402785,11.719179169159027,354.50516986706054,1.151997802342654,1.1000660926805683,5.431137699913184,7.376742535878193,2.927951589294172,4.3923706394708555,1.4297991328654691,0.7326006245284153,1.3728244650279373,1.2590673167400481,5.93583675763485,3.4619645494830134,1.6201824117086416,1.9483940490234744,0.5938742313410016,0.41458713789009277,0.7147281650545575,1.8514321231555015,3.165224730955898,0.0,2.695856805072704,3.193806490088595,7.051249573162561,3.983204155809669
8,diarrhea,2.1095487801363113,3.4257541482493252,3.1528378586217887,1.0449648369332372,1.462497334101252,3.541469949078089,1.151997802342654,49.99375078115236,12.310773465629108,3.8296048648515035,4.755648112356942,1.9081030205708327,1.8330801864001258,3.965145639578632,2.0624452956908956,2.650700764696462,3.6958526655568753,0.5877068924002443,3.417541557305337,1.1058657886092305,4.688772049606356,1.8829677068988862,0.6688596493151319,4.712112598828373,3.854280711802345,2.9758184988781164,3.863153469452682,2.8785103654547255,0.9645579916825584,1.8467348573512743,0.8425913053003204
9,diarrhoea,2.39650834260164,4.417175746171414,2.437862216460003,1.59145320435643,1.5761082657189347,7.51637115273479,1.1000660926805683,12.31077346562911,120.12012012012012,7.612068893405941,7.141505357914395,3.5963759730112907,2.379558639463552,3.742214821593051,1.198718865751723,2.634240034770539,4.12400210703326,0.8500379730078106,6.803678678678678,0.7183804943069522,6.254446520573221,1.9577063381232975,0.8035354435691247,2.815315315315315,2.8678267922237084,4.468754468754469,4.186004186004186,3.719091171562655,1.3250236665851913,2.023537643590414,0.0
10,PMTCT,3.198686962730931,15.724653491941686,17.145858712453226,30.94507638620189,52.1273032628696,20.71870899422178,5.431137699913184,3.829604864851503,7.612068893405941,835.6545961002786,526.6313150215786,17.362570692151422,7.645017555448449,3.3703830534468056,0.7190138570875646,2.6428578330043493,4.287005360039138,6.075137821610687,35.907033426183844,0.8729514466587747,11.844684758146848,1.915972334308581,0.6645520013895652,77.2896262018151,95.80620960015628,145.49343414245922,173.46163585717903,106.21573899373449,7.979077547594851,93.62316562763422,23.47344371068198
11,prevention of mother to child transmission,3.2737962953996638,15.741112617450327,17.145985146349474,28.18050238007826,49.56763872608611,17.688505419561523,7.376742535878193,4.755648112356943,7.141505357914395,526.6313150215786,713.436385255648,19.35764869093901,6.578292559625626,4.557257862170635,0.9646290883773714,2.8204101131051176,4.473347646134114,6.262569971114932,23.68831747919144,0.7825423253698577,11.969716616959094,1.8535155987390928,0.5673583079639808,85.4038011583752,99.35945678765555,125.54144725666724,152.41595503188842,98.23798134834696,7.492572423608153,94.12089515246016,36.07262622079119
12,mother,2.280060618632654,2.30866568011411,2.4935996428921463,4.839412172734752,4.825879723122888,7.793339083365056,2.927951589294172,1.9081030205708325,3.5963759730112907,17.362570692151422,19.357648690939005,19.35764869093901,6.279173898235005,1.5226492070223447,0.9944349022909383,1.2361846063897535,3.4863544164177744,4.856628952312927,8.582395025084287,1.7481588146892766,2.536596718830017,1.1598622386920232,0.9680182649863778,4.90283188870809,5.054844845930354,5.8908320793110525,6.569868646621724,4.87358509953842,2.1748430789233133,5.3904392133079595,4.023780907667097
13,abortion,2.492421029735918,2.277254241478142,2.5325705715959534,6.729341703451996,10.951786140561122,6.327577675693614,4.3923706394708555,1.8330801864001258,2.379558639463552,7.64501755544845,6.578292559625627,6.279173898235006,86.4428756663305,1.846868651006211,1.372657268645416,1.3323890837163945,1.7909042927385248,7.190202071085727,6.246848436824665,2.2439794837516,2.3365942993405957,1.113693642925317,0.659128443355563,1.350669932286414,1.5908412830908871,2.3154341696338525,1.8336367565585254,1.8312178984176477,2.5424638778458757,4.368637312952363,3.885073063655304
14,vaccine,1.421421190110736,5.016102752117444,3.8556445889176736,1.261571383174952,4.811367635423973,1.5443600832029143,1.429799132865469,3.965145639578632,3.7422148215930506,3.3703830534468056,4.557257862170635,1.522649207022345,1.846868651006211,26.16145980945737,2.0914054097151658,2.0009655612441613,2.946913829412491,0.4886305138425332,2.4015402559462817,1.037139170843182,5.9305363043134,1.4564785542393301,0.8468788973263086,3.230623817196096,4.0793920170429665,3.87360900452531,2.6954231318834863,3.5881415545290523,0.8440492958212605,5.171760067873245,5.585030745839213
15,injection,1.3395043751038755,1.5754137645787827,1.3513220640938954,0.800347101307926,1.992875615093168,0.3809415210956843,0.7326006245284153,2.062445295690895,1.198718865751723,0.7190138570875646,0.9646290883773714,0.9944349022909382,1.372657268645416,2.0914054097151653,9.21878481051556,2.0581283507119177,1.7589521453514771,0.3539927810070361,0.5041522943250697,0.8763515371830622,1.415721846965685,1.412294510676312,1.2950372262702077,1.5868019217696896,1.678226928947374,1.2312290725353745,1.50852842353891,1.8828153659716733,0.9134966380761139,2.2471606570791938,3.780737590829415
16,drug,1.6004176107030281,2.5868327682651575,2.356754072926681,1.9326039384957108,2.649798775487937,1.2948228525754448,1.3728244650279373,2.650700764696462,2.6342400347705386,2.6428578330043497,2.8204101131051176,1.2361846063897535,1.3323890837163945,2.000965561244161,2.0581283507119177,5.100999795960008,1.820515547726152,1.4794082934918817,1.175621046725158,1.471911069064849,2.4600810573837277,1.5740728659041112,1.2157736801429686,4.126564855098696,4.1939580515901,3.4253365445341575,3.6866316707165505,3.8486087542577145,1.1588397786461495,3.144253375346163,3.725449289184276
17,pediatrics,2.3451284566710298,2.408998835019842,1.9708621106283986,1.701638857187426,1.90139496794407,0.869695514164894,1.2590673167400481,3.6958526655568753,4.12400210703326,4.287005360039138,4.473347646134114,3.4863544164177744,1.7909042927385246,2.946913829412491,1.758952145351477,1.820515547726152,26.308289303488042,1.407991972004155,3.4426862955736306,1.475809078475159,2.146062361464746,1.7735316873245877,1.161763816367718,3.0233316336669724,2.4796920283566193,2.3489544020971467,2.59096788594958,2.0435010159689244,1.0874394751340681,1.9382807016777266,1.3301944029853505
18,violence,2.495936888294847,2.0974923160358268,2.9670270300590835,10.688281000597229,10.460548609859966,12.874701758903406,5.93583675763485,0.5877068924002443,0.8500379730078106,6.075137821610687,6.26256997111493,4.856628952312927,7.190202071085728,0.48863051384253325,0.3539927810070361,1.4794082934918817,1.407991972004155,46.403712296983755,10.422708816705338,2.1268317641536263,1.267738741119024,0.44599634042544917,0.3994144670741925,0.6782800688571214,1.731051192376912,3.228234449232129,1.5467904098994587,4.347984992520205,3.923703593250874,9.559522626636596,16.945175838786206
19,cash transfer,2.529006372031213,5.870012456435604,6.560949230181957,13.50086405529954,21.678049042804904,13.83559622195986,3.4619645494830134,3.417541557305337,6.803678678678678,35.907033426183844,23.68831747919144,8.582395025084287,6.246848436824665,2.4015402559462817,0.5041522943250697,1.1756210467251582,3.44268629557363,10.422708816705336,2343.75,1.8974759081768562,6.177080320123421,1.1978534466236503,1.973499555597137,1.7719884072580645,5.24589654314847,15.694754464285714,10.653409090909092,13.367395437262358,1.7494842261318515,30.44448954739192,39.50140449438202
20,tobacco,1.8500951678186577,1.313974527152356,1.4106318890156433,2.7671741928331683,2.217792392263165,1.4799979662361282,1.6201824117086419,1.1058657886092305,0.7183804943069523,0.8729514466587748,0.7825423253698577,1.7481588146892766,2.2439794837516,1.0371391708431819,0.8763515371830624,1.471911069064849,1.475809078475159,2.1268317641536263,1.8974759081768562,31.33895693505001,1.0948942946163778,1.5769917425312119,1.468944886977598,0.7503026483945946,1.091135033799304,1.3057898722937504,0.7597322893345457,1.183083925576304,1.0731473584754885,1.6410495005567085,1.936677113963765
21,malaria,1.8852814640292845,5.051194434412737,4.6450745297055285,2.4629370816696605,3.47611258365407,8.469716834825837,1.9483940490234746,4.6887720496063565,6.25444652057322,11.844684758146846,11.969716616959094,2.5365967188300176,2.3365942993405953,5.930536304313399,1.4157218469656847,2.4600810573837277,2.1460623614647463,1.267738741119024,6.177080320123421,1.0948942946163776,38.56908687686819,1.7401358361505015,1.3549789139976616,3.6061318627313756,5.39065576344191,6.21295186669789,5.084106906496261,6.274547267583935,1.0560245336451362,6.105924043831376,3.466884213651073
22,p-value,2.0529145068267076,1.6059070936122326,1.3255628362970462,0.9624184227718657,1.6819933963345215,0.5128943525881667,0.5938742313410016,1.8829677068988864,1.9577063381232973,1.915972334308581,1.853515598739093,1.1598622386920232,1.1136936429253168,1.4564785542393301,1.412294510676312,1.574072865904111,1.7735316873245877,0.44599634042544917,1.1978534466236503,1.5769917425312119,1.7401358361505015,8.51806895376818,2.481664098988082,1.5670842581277147,1.7646235857967905,1.7334016806961292,2.2714850543381817,1.7558974296333647,0.7977879773198601,1.6233949152807634,1.9141727985995913
23,PCA,1.2532063021025561,0.7237911401828706,0.8660619276658769,0.7067700844271512,0.591658383533149,0.6627520480557092,0.4145871378900928,0.668859649315132,0.8035354435691247,0.6645520013895653,0.5673583079639808,0.9680182649863778,0.659128443355563,0.8468788973263085,1.295037226270208,1.2157736801429686,1.1617638163677182,0.3994144670741925,1.9734995555971373,1.4689448869775978,1.3549789139976616,2.481664098988082,56.13509847031857,0.2404981537286834,0.32109108799237185,0.5847406090658185,0.4252658975024134,0.39639124395119035,1.1528829433809995,0.6152415907037148,0.0
24,zidovudine,2.493797794356075,15.268644791957435,16.38313275513178,4.9275043003673895,8.976956542856945,0.3570476444376738,0.7147281650545576,4.712112598828372,2.815315315315315,77.28962620181507,85.4038011583752,4.902831888708091,1.350669932286414,3.2306238171960966,1.5868019217696894,4.126564855098696,3.0233316336669724,0.6782800688571214,1.7719884072580645,0.7503026483945946,3.6061318627313756,1.5670842581277147,0.24049815372868338,302.4193548387097,103.18810117849036,68.74189948156683,102.63929618768329,63.98280212367052,5.170070768622622,21.974046891061107,8.494925697716564
25,antiretroviral drugs,2.9507402557332516,15.66455092516933,17.059565668078193,11.37052200764944,18.230810079733583,3.17107323505551,1.8514321231555015,3.8542807118023448,2.8678267922237084,95.8062096001563,99.35945678765553,5.054844845930355,1.5908412830908871,4.0793920170429665,1.678226928947374,4.193958051590099,2.4796920283566193,1.7310511923769123,5.24589654314847,1.091135033799304,5.39065576344191,1.7646235857967907,0.3210910879923718,103.18810117849034,298.43322556577965,92.261164600135,108.06900137912322,84.3750645882609,6.22502928598597,40.82484149205104,21.795685013231097
26,ARV,2.9029697202764297,13.39350788749832,15.095863704942468,17.045988902473432,26.02326153089758,6.851914319446787,3.165224730955898,2.975818498878116,4.468754468754469,145.4934341424592,125.54144725666724,5.890832079311052,2.3154341696338525,3.8736090045253095,1.2312290725353743,3.425336544534157,2.3489544020971467,3.228234449232129,15.694754464285714,1.3057898722937504,6.21295186669789,1.7334016806961292,0.5847406090658184,68.74189948156682,92.261164600135,446.42857142857144,101.46103896103898,90.57092418716536,6.539738654826207,52.643596509031866,22.57223113964687
27,initiated ART,3.9547690074149338,15.612708455558593,18.13207787250286,20.04907534861452,19.9456383582002,4.293227433723302,0.0,3.8631534694526817,4.186004186004187,173.46163585717903,152.41595503188844,6.569868646621724,1.8336367565585259,2.6954231318834863,1.5085284235389098,3.6866316707165514,2.5909678859495795,1.5467904098994587,10.65340909090909,0.7597322893345457,5.084106906496261,2.2714850543381817,0.42526589750241345,102.63929618768329,108.06900137912324,101.46103896103895,1818.1818181818182,160.97970470594043,12.440776719159834,52.03240031736074,30.643513789581203
28,HIV treatment,3.8017446083848605,15.901832686217087,17.51573547876931,24.378870715639206,37.925837578569634,9.234753198014271,2.6958568050727036,2.878510365454725,3.7190911715626545,106.2157389937345,98.23798134834695,4.87358509953842,1.8312178984176477,3.5881415545290523,1.8828153659716733,3.8486087542577136,2.0435010159689244,4.347984992520205,13.367395437262358,1.183083925576304,6.274547267583934,1.7558974296333647,0.39639124395119035,63.98280212367052,84.37506458826088,90.57092418716536,160.97970470594043,325.9098316132537,7.494199555430883,73.68856351068898,49.4357609750441
29,ART,1.220606641225141,1.9606715545494864,2.411696568474361,3.0282930822313023,2.627843135774351,4.053901268581008,3.193806490088595,0.9645579916825584,1.3250236665851916,7.9790775475948506,7.492572423608151,2.1748430789233133,2.5424638778458757,0.8440492958212605,0.913496638076114,1.1588397786461497,1.0874394751340684,3.923703593250874,1.7494842261318515,1.0731473584754883,1.0560245336451362,0.7977879773198602,1.1528829433809997,5.170070768622622,6.225029285985969,6.539738654826206,12.440776719159832,7.494199555430882,12.440776719159834,4.254659787250724,3.3548161939307413
30,HIV prevention,5.15932104413952,15.901832686217087,17.443890626276346,30.74512637636551,113.57909802322338,13.227357914333208,7.05124957316256,1.8467348573512743,2.023537643590414,93.62316562763422,94.12089515246016,5.3904392133079595,4.368637312952363,5.171760067873245,2.2471606570791938,3.144253375346163,1.9382807016777266,9.559522626636598,30.44448954739192,1.6410495005567085,6.105924043831377,1.6233949152807636,0.6152415907037148,21.974046891061107,40.82484149205105,52.64359650903186,52.03240031736073,73.68856351068897,4.254659787250724,243.55591637913537,143.67062483038885
31,high risk sex,6.815006644631478,14.47245446723128,16.620177825180033,32.17669815298356,158.06226299723755,15.918708462120106,3.983204155809669,0.8425913053003206,0.0,23.473443710681984,36.07262622079119,4.023780907667097,3.885073063655303,5.585030745839213,3.7807375908294154,3.725449289184276,1.3301944029853503,16.945175838786206,39.50140449438202,1.9366771139637646,3.466884213651073,1.9141727985995913,0.0,8.494925697716564,21.795685013231097,22.572231139646867,30.643513789581206,49.4357609750441,3.3548161939307413,143.67062483038885,6741.573033707865
